Analyzing Financial and Economic Data with R
…
We can also get information about components of an index using function tq_index. The available market indices are:  

# print available indices
print(tq_index_options())

## [1] "DOW"       "DOWGLOBAL" "SP400"     "SP500"     "SP600"

Lets get information for "DOWGLOBAL".

# get components of "DOWJONES"
print(tq_index("DOWGLOBAL"))

## Getting holdings for DOWGLOBAL

## # A tibble: 156 x 8
##    symbol  company   identifier sedol  weight sector  shares_held local_currency
##    <chr>   <chr>     <chr>      <chr>   <dbl> <chr>         <dbl> <chr>         
##  1 AAPL    Apple In 03783310   2046 0.00898 Inform        2737 USD           
##  2 NG-GB   National BDR05C     BDR0 0.00854 Utilit       57469 GBP           
##  3 ADBE    Adobe In 00724F10   2008 0.00847 Inform        2154 USD           
##  4 6752-JP Panasoni 657270     6572 0.00843 Consum       70905 JPY           
##  5 GE      General  36960410   2380 0.00832 Indust       63741 USD           
##  6 NEE     NextEra  65339F10   2328 0.00826 Utilit        2739 USD           
##  7 NFLX    Netflix  64110L10   2857 0.00826 Commun        2034 USD           
##  8 MSFT    Microsof 59491810   2588 0.00822 Inform        4369 USD           
##  9 ROG-CH  Roche Ho 711038     7110 0.00811 Health        2151 CHF           
## 10 EOAN-DE E.ON SE   494290     4942 0.00806 Utilit       60347 EUR           
## #  with 146 more rows
…
